<?xml version="1.0" standalone="no"?>
<!DOCTYPE svg PUBLIC "-//W3C//DTD SVG 20010904//EN"
 "http://www.w3.org/TR/2001/REC-SVG-20010904/DTD/svg10.dtd">
<svg version="1.0" xmlns="http://www.w3.org/2000/svg"
 width="774.000000pt" height="774.000000pt" viewBox="0 0 774.000000 774.000000"
 preserveAspectRatio="xMidYMid meet">
<metadata>
Created by potrace 1.11, written by Peter Selinger 2001-2013
</metadata>
<g transform="translate(0.000000,774.000000) scale(0.100000,-0.100000)"
fill="#000000" stroke="none">
<path d="M879 6716 c-2 -2 -26 -7 -54 -11 -140 -18 -360 -120 -474 -220 -210
-183 -323 -396 -338 -640 -8 -134 -8 -3874 0 -3950 10 -88 20 -133 48 -217 25
-77 98 -228 109 -228 6 0 10 -7 10 -16 0 -8 6 -21 12 -28 12 -12 85 -99 98
-115 15 -20 138 -115 167 -129 18 -9 33 -19 33 -24 0 -4 5 -8 11 -8 6 0 41
-14 78 -31 36 -17 75 -34 86 -39 34 -14 147 -40 156 -35 4 3 10 1 14 -4 6 -10
250 -8 295 3 14 3 34 8 45 10 11 3 35 9 53 15 17 5 32 7 32 4 0 -3 6 0 13 6 8
6 17 8 20 4 4 -3 7 -1 7 5 0 7 3 11 8 10 4 -1 24 6 46 15 21 9 43 14 49 10 5
-3 7 -2 4 4 -5 8 61 49 71 44 1 -1 9 4 17 11 30 27 44 38 50 38 21 0 193 174
238 243 59 88 114 208 133 289 2 10 6 28 9 40 3 13 8 57 12 98 8 98 9 3939 0
4008 -20 160 -97 339 -206 474 -64 80 -219 221 -233 212 -3 -2 -10 0 -13 6
-11 18 -195 105 -245 115 -8 2 -15 4 -15 5 0 1 -14 5 -65 16 -30 7 -275 15
-281 10z"/>
<path d="M6630 6709 c-19 -5 -46 -11 -60 -13 -260 -52 -535 -258 -665 -499
-74 -138 -96 -237 -101 -462 -5 -258 -6 -408 -4 -420 1 -5 2 -12 1 -15 -1 -3
-1 -120 -1 -260 0 -140 0 -264 0 -275 0 -11 0 -121 1 -245 0 -124 0 -229 0
-235 0 -5 -2 -98 -4 -205 -2 -107 0 -210 4 -228 4 -17 3 -35 -2 -38 -5 -3 -7
-9 -5 -13 4 -6 7 -81 5 -121 -1 -20 0 -149 1 -175 2 -26 2 -31 1 -90 0 -82 0
-94 -1 -107 -1 -7 -1 -35 -1 -63 0 -27 0 -57 0 -65 0 -28 1 -355 0 -375 0 -41
-1 -664 -2 -750 0 -99 7 -171 25 -255 6 -30 11 -61 11 -67 0 -7 5 -13 10 -13
6 0 8 -3 5 -6 -9 -9 32 -124 45 -124 5 0 8 -3 4 -6 -6 -6 48 -123 62 -134 3
-3 19 -25 34 -49 68 -104 204 -218 337 -283 168 -81 271 -107 429 -106 93 1
243 24 291 45 8 3 21 7 28 9 8 1 21 6 30 10 9 4 19 8 22 8 3 1 15 7 26 14 12
6 24 8 28 5 3 -3 6 -1 6 5 0 6 10 14 23 18 25 7 138 82 149 98 4 6 8 8 8 4 0
-14 132 116 174 172 37 49 99 146 101 160 1 3 9 23 19 45 19 41 44 120 52 165
16 81 18 336 18 2135 l1 1980 -23 85 c-12 47 -34 114 -49 150 -27 65 -111 203
-152 250 -60 67 -80 88 -120 120 -24 19 -49 41 -56 48 -8 6 -17 12 -20 12 -4
0 -21 10 -37 22 -65 46 -224 113 -293 124 -11 2 -42 8 -70 14 -56 12 -232 11
-285 -1z"/>
<path d="M3779 6065 c-2 -2 -26 -6 -53 -10 -109 -13 -281 -85 -415 -173 -162
-108 -324 -331 -367 -507 -4 -16 -8 -34 -10 -40 -24 -97 -24 -123 -25 -1220 0
-711 3 -1016 11 -1055 6 -30 13 -64 15 -75 2 -11 8 -35 13 -52 6 -18 9 -33 6
-33 -2 0 3 -11 12 -25 9 -14 14 -25 11 -25 -3 0 0 -12 8 -27 8 -15 12 -30 9
-35 -3 -4 0 -8 5 -8 6 0 11 -7 11 -15 0 -8 5 -15 11 -15 5 0 8 -4 5 -8 -3 -5
6 -25 20 -45 14 -20 23 -37 20 -37 -3 0 6 -12 20 -27 13 -14 22 -28 20 -30 -2
-2 11 -20 30 -38 19 -19 34 -39 34 -45 0 -5 3 -10 8 -10 4 0 25 -17 47 -38 62
-59 225 -164 225 -145 0 4 4 3 8 -3 17 -25 185 -80 282 -93 96 -12 284 -3 349
18 19 6 38 8 42 5 5 -3 9 -1 9 4 0 5 7 9 15 10 8 1 22 3 30 4 8 1 15 6 15 11
0 5 7 7 15 3 8 -3 15 -1 15 5 0 6 5 7 10 4 6 -3 10 -1 10 6 0 6 8 9 20 6 13
-3 18 -1 13 6 -4 7 0 8 11 4 9 -4 14 -3 11 2 -3 5 5 13 17 17 13 4 26 11 29
16 3 5 15 10 27 11 11 0 20 6 19 11 -1 6 8 15 21 21 12 5 22 13 22 18 0 4 5 5
10 2 6 -3 13 1 16 9 3 9 13 16 20 16 8 0 17 7 20 15 4 8 11 12 17 8 6 -3 7 -1
3 6 -4 7 2 15 16 20 13 6 19 10 14 10 -4 1 7 15 25 33 19 18 38 31 44 29 5 -1
7 0 3 4 -4 4 -2 13 5 21 29 32 37 44 37 53 0 5 4 11 8 13 29 12 113 192 137
294 10 38 19 98 22 134 8 108 7 2122 -1 2165 -12 65 -37 158 -51 190 -45 104
-71 154 -107 209 -49 72 -172 198 -243 248 -79 56 -229 130 -288 143 -10 2
-28 7 -39 11 -11 3 -32 8 -46 11 -36 6 -278 14 -283 8z"/>
</g>
</svg>
